…
``` r
homicide_df %>% 
  group_by(city_state, status) %>% 
  count()
```

    ## # A tibble: 101 × 3
    ## # Groups:   city_state, status [101]
    ##    city_state      status       n
    ##    <chr>           <chr>    <int>
    ##  1 Albuquerque, NM solved     232
    ##  2 Albuquerque, NM unsolved   146
    ##  3 Atlanta, GA     solved     600
    ##  4 Atlanta, GA     unsolved   373
    ##  5 Baltimore, MD   solved    1002
    ##  6 Baltimore, MD   unsolved  1825
    ##  7 Baton Rouge, LA solved     228
    ##  8 Baton Rouge, LA unsolved   196
    ##  9 Birmingham, AL  solved     453
    ## 10 Birmingham, AL  unsolved   347
    ## # … with 91 more rows
…
